{
  "name": "Mural",
  "plural": "murais",
  "base": "PersistedModel",
  "idInjection": true,
  "options": {
    "validateUpsert": true
  },
  "properties": {
    "mensagem": {
      "type": "string",
      "required": true
    },
    "data": {
      "type": "date",
      "required": true
    },
    "validade": {
      "type": "boolean",
      "required": true,
      "default": true
    }
  },
  "validations": [],
  "relations": {
    "professor": {
      "type": "belongsTo",
      "model": "Professor",
      "foreignKey": ""
    },
    "secretario": {
      "type": "belongsTo",
      "model": "Secretario",
      "foreignKey": ""
    },
    "sala": {
      "type": "belongsTo",
      "model": "Sala",
      "foreignKey": ""
    },
    "turma": {
      "type": "belongsTo",
      "model": "Turma",
      "foreignKey": ""
    },
    "orgao": {
      "type": "belongsTo",
      "model": "Orgao",
      "foreignKey": ""
    }
  },
  "acls": [],
  "methods": {}
}
